op_tb.vcd
$date
	Wed Nov 15 12:56:03 2023
$end
$version
	Icarus Verilog
$end
$timescale
	1ps
$end
$scope module op_tb $end
$var wire 32 ! x6 [31:0] $end
$var wire 32 " x5 [31:0] $end
$var wire 32 # x4 [31:0] $end
$var wire 32 $ x3 [31:0] $end
$var wire 32 % x2 [31:0] $end
$var wire 32 & x1 [31:0] $end
$var reg 1 ' clk $end
$var reg 1 ( reset $end
$scope module i_riscv $end
$var wire 1 ' clk $end
$var wire 1 ( reset $end
$var wire 5 ) write_reg [4:0] $end
$var wire 32 * write_data [31:0] $end
$var wire 1 + stall_PC $end
$var wire 1 , stall_IF_ID $end
$var wire 5 - read_reg2 [4:0] $end
$var wire 5 . read_reg1 [4:0] $end
$var wire 32 / read_data_W [31:0] $end
$var wire 32 0 read_data2_M [31:0] $end
$var wire 32 1 read_data2_E [31:0] $end
$var wire 32 2 read_data2 [31:0] $end
$var wire 32 3 read_data1_E [31:0] $end
$var wire 32 4 read_data1 [31:0] $end
$var wire 32 5 read_data [31:0] $end
$var wire 32 6 plused_pc [31:0] $end
$var wire 32 7 forwarding_to_mux [31:0] $end
$var wire 32 8 checkx6 [31:0] $end
$var wire 32 9 checkx5 [31:0] $end
$var wire 32 : checkx4 [31:0] $end
$var wire 32 ; checkx3 [31:0] $end
$var wire 32 < checkx2 [31:0] $end
$var wire 32 = checkx1 [31:0] $end
$var wire 1 > Zero_M $end
$var wire 1 ? Zero $end
$var wire 5 @ Rs2 [4:0] $end
$var wire 5 A Rs1 [4:0] $end
$var wire 1 B RegWrite_W $end
$var wire 1 C RegWrite_M $end
$var wire 1 D RegWrite_E $end
$var wire 1 E RegWrite_D $end
$var wire 5 F Rd [4:0] $end
$var wire 32 G PCadd [31:0] $end
$var wire 32 H PC_out [31:0] $end
$var wire 1 I PC_Src $end
$var wire 32 J PC_M [31:0] $end
$var wire 32 K PC_F [31:0] $end
$var wire 32 L PC_E [31:0] $end
$var wire 32 M PC_D [31:0] $end
$var wire 1 N MemtoReg_W $end
$var wire 1 O MemtoReg_M $end
$var wire 1 P MemtoReg_E $end
$var wire 1 Q MemtoReg_D $end
$var wire 1 R MemWrite_M $end
$var wire 1 S MemWrite_E $end
$var wire 1 T MemWrite_D $end
$var wire 1 U MemRead_M $end
$var wire 1 V MemRead_E $end
$var wire 1 W MemRead_D $end
$var wire 5 X MEM_WB_Reg_Rd [4:0] $end
$var wire 32 Y Inst_M [31:0] $end
$var wire 32 Z Inst_E [31:0] $end
$var wire 32 [ Inst_D [31:0] $end
$var wire 32 \ Inst [31:0] $end
$var wire 32 ] Imm_E [31:0] $end
$var wire 32 ^ Imm_D [31:0] $end
$var wire 2 _ ForwardB [1:0] $end
$var wire 2 ` ForwardA [1:0] $end
$var wire 5 a EX_MEM_Reg_Rd [4:0] $end
$var wire 1 b Branch_M $end
$var wire 1 c Branch_E $end
$var wire 1 d Branch_D $end
$var wire 32 e ALU_2 [31:0] $end
$var wire 32 f ALU_1 [31:0] $end
$var wire 1 g ALUSrc_E $end
$var wire 1 h ALUSrc_D $end
$var wire 32 i ALUResult_W [31:0] $end
$var wire 32 j ALUResult_M [31:0] $end
$var wire 32 k ALUResult [31:0] $end
$var wire 2 l ALUOP_E [1:0] $end
$var wire 2 m ALUOP_D [1:0] $end
$var wire 4 n ALUControl [3:0] $end
$scope module i_ALU $end
$var wire 32 o AND [31:0] $end
$var wire 32 p OR [31:0] $end
$var wire 32 q SUB [31:0] $end
$var wire 32 r SRL [31:0] $end
$var wire 32 s SRA [31:0] $end
$var wire 32 t SLL [31:0] $end
$var wire 32 u B [31:0] $end
$var wire 4 v ALUControl [3:0] $end
$var wire 32 w ADD [31:0] $end
$var wire 32 x A [31:0] $end
$var reg 32 y ALUResult [31:0] $end
$var reg 1 ? Zero $end
$upscope $end
$scope module i_ALUControl $end
$var wire 32 z Inst [31:0] $end
$var wire 2 { ALUOp [1:0] $end
$var reg 4 | ALUControl [3:0] $end
$var reg 3 } funct3 [2:0] $end
$var reg 7 ~ funct7 [6:0] $end
$upscope $end
$scope module i_Branch_Adder $end
$var wire 32 !" PC_target [31:0] $end
$var wire 32 "" PC_shifted [31:0] $end
$var wire 32 #" PC [31:0] $end
$var wire 32 $" Imm [31:0] $end
$upscope $end
$scope module i_Control $end
$var wire 32 %" Inst [31:0] $end
$var reg 2 &" ALUOP [1:0] $end
$var reg 1 h ALUSrc $end
$var reg 1 d Branch $end
$var reg 1 W MemRead $end
$var reg 1 T MemWrite $end
$var reg 1 Q MemtoReg $end
$var reg 1 E RegWrite $end
$upscope $end
$scope module i_DMEM $end
$var wire 1 ' clk $end
$var wire 1 ( reset $end
$var wire 32 '" write_data [31:0] $end
$var wire 1 R mem_write $end
$var wire 1 U mem_read $end
$var wire 32 (" addr [31:0] $end
$var reg 32 )" read_data [31:0] $end
$var integer 32 *" i [31:0] $end
$upscope $end
$scope module i_EX_MEM $end
$var wire 32 +" ALUResultE [31:0] $end
$var wire 32 ," PC_Imm_E [31:0] $end
$var wire 1 ? ZeroE $end
$var wire 1 ' clk $end
$var wire 1 ( reset $end
$var wire 32 -" read_data_2_E [31:0] $end
$var wire 1 D RegWriteE $end
$var wire 5 ." Rd [4:0] $end
$var wire 1 P MemtoRegE $end
$var wire 1 S MemWriteE $end
$var wire 1 V MemReadE $end
$var wire 32 /" Inst_E [31:0] $end
$var wire 1 c BranchE $end
$var reg 32 0" ALUResultM [31:0] $end
$var reg 1 b BranchM $end
$var reg 5 1" EX_MEM_Reg_Rd [4:0] $end
$var reg 32 2" Inst_M [31:0] $end
$var reg 1 U MemReadM $end
$var reg 1 R MemWriteM $end
$var reg 1 O MemtoRegM $end
$var reg 32 3" PC_Imm_M [31:0] $end
$var reg 1 C RegWriteM $end
$var reg 1 > ZeroM $end
$var reg 32 4" read_data_2_M [31:0] $end
$upscope $end
$scope module i_Forwarding_Unit $end
$var wire 5 5" EX_MEM_RegRd [4:0] $end
$var wire 1 O MemtoRegM $end
$var wire 1 C RegWriteM $end
$var wire 5 6" Rs2 [4:0] $end
$var wire 5 7" Rs1 [4:0] $end
$var wire 1 B RegWriteW $end
$var wire 1 N MemtoRegW $end
$var wire 5 8" MEM_WB_RegRd [4:0] $end
$var reg 2 9" ForwardA [1:0] $end
$var reg 2 :" ForwardB [1:0] $end
$upscope $end
$scope module i_ID_EX $end
$var wire 2 ;" ALUOPD [1:0] $end
$var wire 1 h ALUSrcD $end
$var wire 1 d BranchD $end
$var wire 5 <" IF_ID_Reg_Rd [4:0] $end
$var wire 5 =" IF_ID_Reg_Rs1 [4:0] $end
$var wire 5 >" IF_ID_Reg_Rs2 [4:0] $end
$var wire 1 W MemReadD $end
$var wire 1 T MemWriteD $end
$var wire 1 Q MemtoRegD $end
$var wire 1 E RegWriteD $end
$var wire 1 ' clk $end
$var wire 1 ( reset $end
$var wire 1 , stall $end
$var wire 32 ?" read_data_2_D [31:0] $end
$var wire 32 @" read_data_1_D [31:0] $end
$var wire 32 A" PCD [31:0] $end
$var wire 32 B" Inst_D [31:0] $end
$var wire 32 C" ImmD [31:0] $end
$var reg 2 D" ALUOPE [1:0] $end
$var reg 1 g ALUSrcE $end
$var reg 1 c BranchE $end
$var reg 32 E" ImmE [31:0] $end
$var reg 32 F" Inst_E [31:0] $end
$var reg 1 V MemReadE $end
$var reg 1 S MemWriteE $end
$var reg 1 P MemtoRegE $end
$var reg 32 G" PCE [31:0] $end
$var reg 5 H" Rd [4:0] $end
$var reg 1 D RegWriteE $end
$var reg 5 I" Rs1 [4:0] $end
$var reg 5 J" Rs2 [4:0] $end
$var reg 32 K" read_data_1_E [31:0] $end
$var reg 32 L" read_data_2_E [31:0] $end
$upscope $end
$scope module i_IF_ID $end
$var wire 1 ' clk $end
$var wire 1 ( reset $end
$var wire 1 , stall_IF_ID $end
$var wire 32 M" PCF [31:0] $end
$var wire 32 N" Inst_in [31:0] $end
$var reg 32 O" Inst_out [31:0] $end
$var reg 32 P" PCD [31:0] $end
$upscope $end
$scope module i_ImmGen $end
$var wire 32 Q" Inst [31:0] $end
$var reg 32 R" ImmOut [31:0] $end
$upscope $end
$scope module i_MEM_WB $end
$var wire 32 S" ALUResult_M [31:0] $end
$var wire 5 T" EX_MEM_Reg_Rd [4:0] $end
$var wire 1 O MemtoRegM $end
$var wire 1 C RegWriteM $end
$var wire 1 ' clk $end
$var wire 32 U" read_data_M [31:0] $end
$var wire 1 ( reset $end
$var reg 32 V" ALUResult_W [31:0] $end
$var reg 5 W" MEM_WB_Reg_Rd [4:0] $end
$var reg 1 N MemtoRegW $end
$var reg 1 B RegWriteW $end
$var reg 32 X" read_data_W [31:0] $end
$upscope $end
$scope module i_MUX32bit2to1 $end
$var wire 32 Y" I0 [31:0] $end
$var wire 32 Z" I1 [31:0] $end
$var wire 1 N sel $end
$var reg 32 [" out [31:0] $end
$upscope $end
$scope module i_MUXForwarding_A $end
$var wire 32 \" I0 [31:0] $end
$var wire 32 ]" I1 [31:0] $end
$var wire 32 ^" I2 [31:0] $end
$var wire 2 _" sel [1:0] $end
$var reg 32 `" out [31:0] $end
$upscope $end
$scope module i_MUXForwarding_B $end
$var wire 32 a" I0 [31:0] $end
$var wire 32 b" I1 [31:0] $end
$var wire 32 c" I2 [31:0] $end
$var wire 2 d" sel [1:0] $end
$var reg 32 e" out [31:0] $end
$upscope $end
$scope module i_MUX_ALU $end
$var wire 32 f" I0 [31:0] $end
$var wire 32 g" I1 [31:0] $end
$var wire 1 g sel $end
$var reg 32 h" out [31:0] $end
$upscope $end
$scope module i_MUX_Branch $end
$var wire 1 b Branch $end
$var wire 1 > Zero $end
$var wire 3 i" funct3 [2:0] $end
$var wire 1 j" temp_beq $end
$var wire 1 k" temp_bne $end
$var reg 1 I branch_res $end
$upscope $end
$scope module i_PC_Plus4 $end
$var wire 32 l" PC_in [31:0] $end
$var reg 32 m" PC_plus4 [31:0] $end
$upscope $end
$scope module i_RegFile $end
$var wire 1 B RegWrite $end
$var wire 1 ' clk $end
$var wire 5 n" read_reg1 [4:0] $end
$var wire 5 o" read_reg2 [4:0] $end
$var wire 1 ( reset $end
$var wire 32 p" write_data [31:0] $end
$var wire 5 q" write_reg [4:0] $end
$var reg 32 r" check1 [31:0] $end
$var reg 32 s" check2 [31:0] $end
$var reg 32 t" check3 [31:0] $end
$var reg 32 u" check4 [31:0] $end
$var reg 32 v" check5 [31:0] $end
$var reg 32 w" check6 [31:0] $end
$var reg 32 x" read_data1 [31:0] $end
$var reg 32 y" read_data2 [31:0] $end
$var integer 32 z" i [31:0] $end
$upscope $end
$scope module i_hazard_detection $end
$var wire 1 V ID_EX_MemRead $end
$var wire 5 {" ID_EX_RegRd [4:0] $end
$var wire 5 |" IF_ID_RegRs1 [4:0] $end
$var wire 5 }" IF_ID_RegRs2 [4:0] $end
$var reg 1 , stall_IF_ID $end
$var reg 1 + stall_PC $end
$upscope $end
$scope module i_imem $end
$var wire 32 ~" Inst [31:0] $end
$var wire 32 !# addr [31:0] $end
$upscope $end
$scope module i_pc $end
$var wire 1 ' clk $end
$var wire 1 ( reset $end
$var wire 1 + stall_PC $end
$var wire 32 "# PC_in [31:0] $end
$var reg 32 ## PC_out [31:0] $end
$upscope $end
$scope module i_pcmux $end
$var wire 32 $# I0 [31:0] $end
$var wire 32 %# I1 [31:0] $end
$var wire 1 I sel $end
$var reg 32 &# out [31:0] $end
$upscope $end
$upscope $end
$upscope $end
$enddefinitions $end
#0
$dumpvars
bx &#
bx %#
bx $#
bx ##
bx "#
bx !#
bx ~"
bx }"
bx |"
bx {"
b10000000000 z"
bx y"
bx x"
b0 w"
b0 v"
b0 u"
b0 t"
b0 s"
b0 r"
bx q"
bx p"
bx o"
bx n"
bx m"
bx l"
xk"
xj"
bx i"
bx h"
bx g"
bx f"
bx e"
bx d"
bx c"
bx b"
bx a"
bx `"
bx _"
bx ^"
bx ]"
bx \"
bx ["
bx Z"
bx Y"
bx X"
bx W"
bx V"
bx U"
bx T"
bx S"
bx R"
bx Q"
bx P"
bx O"
bx N"
bx M"
bx L"
bx K"
bx J"
bx I"
bx H"
bx G"
bx F"
bx E"
bx D"
bx C"
bx B"
bx A"
bx @"
bx ?"
bx >"
bx ="
bx <"
bx ;"
bx :"
bx 9"
bx 8"
bx 7"
bx 6"
bx 5"
bx 4"
bx 3"
bx 2"
bx 1"
bx 0"
bx /"
bx ."
bx -"
bx ,"
bx +"
bx *"
bx )"
bx ("
bx '"
bx &"
bx %"
bx $"
bx #"
bx ""
bx !"
bx ~
bx }
bx |
bx {
bx z
bx y
bx x
bx w
bx v
bx u
bx t
bx s
bx r
bx q
bx p
bx o
bx n
bx m
bx l
bx k
bx j
bx i
xh
xg
bx f
bx e
xd
xc
xb
bx a
bx `
bx _
bx ^
bx ]
bx \
bx [
bx Z
bx Y
bx X
xW
xV
xU
xT
xS
xR
xQ
xP
xO
xN
bx M
bx L
bx K
bx J
xI
bx H
bx G
bx F
xE
xD
xC
xB
bx A
bx @
x?
x>
b0 =
b0 <
b0 ;
b0 :
b0 9
b0 8
bx 7
bx 6
bx 5
bx 4
bx 3
bx 2
bx 1
bx 0
bx /
bx .
bx -
x,
x+
bx *
bx )
1(
0'
b0 &
b0 %
b0 $
b0 #
b0 "
b0 !
$end
#5000
b0 k
b0 y
b0 +"
b0 p
b0 s
b0 r
b0 t
b0 q
b0 w
b0 e
b0 u
b0 h"
b0 o
b100 K
b100 "#
b100 &#
1?
b0 f
b0 x
b0 `"
b0 7
b0 -"
b0 e"
b0 f"
0I
b100 6
b100 m"
b100 $#
b0 m
b0 &"
b0 ;"
0E
0h
0T
0Q
0W
0d
b10 n
b10 v
b10 |
b0 }
b0 ~
0,
0+
b0 _
b0 :"
b0 d"
b0 `
b0 9"
b0 _"
b0 *
b0 ["
b0 ]"
b0 b"
b0 p"
b0 2
b0 ?"
b0 y"
b0 4
b0 @"
b0 x"
b101000001000000010010011 \
b101000001000000010010011 N"
b101000001000000010010011 ~"
b0 )
b0 <"
b0 -
b0 >"
b0 o"
b0 }"
b0 .
b0 ="
b0 n"
b0 |"
b0 ""
b0 i"
0j"
0k"
b0 H
b0 M"
b0 l"
b0 !#
b0 ##
b0 [
b0 %"
b0 B"
b0 O"
b0 Q"
b0 M
b0 A"
b0 P"
b0 Z
b0 z
b0 /"
b0 F"
b0 F
b0 ."
b0 H"
b0 {"
b0 @
b0 6"
b0 J"
b0 A
b0 7"
b0 I"
b0 l
b0 {
b0 D"
0g
0S
0V
0c
0P
0D
b0 ]
b0 $"
b0 E"
b0 g"
b0 1
b0 L"
b0 a"
b0 3
b0 K"
b0 \"
b0 Y
b0 2"
b0 a
b0 1"
b0 5"
b0 T"
0R
0U
0b
0O
0C
b0 0
b0 '"
b0 4"
b0 j
b0 ("
b0 0"
b0 S"
b0 ^"
b0 c"
0>
b0 J
b0 3"
b0 %#
b0 X
b0 8"
b0 W"
b0 q"
0N
0B
b0 i
b0 V"
b0 Y"
b0 /
b0 X"
b0 Z"
b10000000000 *"
1'
#7000
0(
#10000
0'
#15000
b1000 K
b1000 "#
b1000 &#
b10 m
b10 &"
b10 ;"
1E
1h
b1010 ^
b1010 C"
b1010 R"
b1000 6
b1000 m"
b1000 $#
1k"
bx ""
b1 )
b1 <"
b1010 -
b1010 >"
b1010 o"
b1010 }"
b1 .
b1 ="
b1 n"
b1 |"
b100110010000000100011 \
b100110010000000100011 N"
b100110010000000100011 ~"
bx /
bx X"
bx Z"
1>
bx J
bx 3"
bx %#
bx ]
bx $"
bx E"
bx g"
bx G
bx !"
bx ,"
b0 L
b0 #"
b0 G"
b101000001000000010010011 [
b101000001000000010010011 %"
b101000001000000010010011 B"
b101000001000000010010011 O"
b101000001000000010010011 Q"
b100 H
b100 M"
b100 l"
b100 !#
b100 ##
1'
#20000
0'
#25000
0?
b1100 K
b1100 "#
b1100 &#
b1010 k
b1010 y
b1010 +"
b1010 p
b1100 6
b1100 m"
b1100 $#
b0 ^
b0 C"
b0 R"
b0 m
b0 &"
b0 ;"
0E
1T
xQ
b11111111111111111111111111110110 q
b1010 w
b1010 e
b1010 u
b1010 h"
b1010000010000000100010011 \
b1010000010000000100010011 N"
b1010000010000000100010011 ~"
b0 )
b0 <"
b1 -
b1 >"
b1 o"
b1 }"
b110 .
b110 ="
b110 n"
b110 |"
b101 G
b101 !"
b101 ,"
b101 ""
b1000 H
b1000 M"
b1000 l"
b1000 !#
b1000 ##
b100110010000000100011 [
b100110010000000100011 %"
b100110010000000100011 B"
b100110010000000100011 O"
b100110010000000100011 Q"
b100 M
b100 A"
b100 P"
b101000001000000010010011 Z
b101000001000000010010011 z
b101000001000000010010011 /"
b101000001000000010010011 F"
b1 F
b1 ."
b1 H"
b1 {"
b1010 @
b1010 6"
b1010 J"
b1 A
b1 7"
b1 I"
b10 l
b10 {
b10 D"
1g
1D
b1010 ]
b1010 $"
b1010 E"
b1010 g"
1'
#30000
0'
#35000
1?
b1010 7
b1010 -"
b1010 e"
b1010 f"
b0 k
b0 y
b0 +"
b10000 K
b10000 "#
b10000 &#
b0 p
b10 _
b10 :"
b10 d"
b10 }
b0 q
b0 w
b0 e
b0 u
b0 h"
b10 m
b10 &"
b10 ;"
1E
0T
0Q
b10100 ^
b10100 C"
b10100 R"
b10000 6
b10000 m"
b10000 $#
0k"
b0 ""
b10 )
b10 <"
b10100 -
b10100 >"
b10100 o"
b10100 }"
b10 .
b10 ="
b10 n"
b10 |"
b1000110010001000100011 \
b1000110010001000100011 N"
b1000110010001000100011 ~"
b101000001000000010010011 Y
b101000001000000010010011 2"
b1 a
b1 1"
b1 5"
b1 T"
1C
b1010 j
b1010 ("
b1010 0"
b1010 S"
b1010 ^"
b1010 c"
0>
b101 J
b101 3"
b101 %#
b100110010000000100011 Z
b100110010000000100011 z
b100110010000000100011 /"
b100110010000000100011 F"
b0 F
b0 ."
b0 H"
b0 {"
b1 @
b1 6"
b1 J"
b110 A
b110 7"
b110 I"
b0 l
b0 {
b0 D"
1S
xP
0D
b0 ]
b0 $"
b0 E"
b0 g"
b100 G
b100 !"
b100 ,"
b100 L
b100 #"
b100 G"
b1010000010000000100010011 [
b1010000010000000100010011 %"
b1010000010000000100010011 B"
b1010000010000000100010011 O"
b1010000010000000100010011 Q"
b1000 M
b1000 A"
b1000 P"
b1100 H
b1100 M"
b1100 l"
b1100 !#
b1100 ##
1'
#40000
0'
#45000
0?
b10100 K
b10100 "#
b10100 &#
b10100 k
b10100 y
b10100 +"
b10100 p
b10100 6
b10100 m"
b10100 $#
b100 ^
b100 C"
b100 R"
b0 m
b0 &"
b0 ;"
0E
1T
xQ
b0 }
b11111111111111111111111111101100 q
b10100 w
b10100 e
b10100 u
b10100 h"
b0 7
b0 -"
b0 e"
b0 f"
b0 _
b0 :"
b0 d"
b1010 *
b1010 ["
b1010 ]"
b1010 b"
b1010 p"
b10000110010000010000011 \
b10000110010000010000011 N"
b10000110010000010000011 ~"
b100 )
b100 <"
b10 -
b10 >"
b10 o"
b10 }"
b110 .
b110 ="
b110 n"
b110 |"
b1010 ""
b10 i"
1k"
b10000 H
b10000 M"
b10000 l"
b10000 !#
b10000 ##
b1000110010001000100011 [
b1000110010001000100011 %"
b1000110010001000100011 B"
b1000110010001000100011 O"
b1000110010001000100011 Q"
b1100 M
b1100 A"
b1100 P"
b1010000010000000100010011 Z
b1010000010000000100010011 z
b1010000010000000100010011 /"
b1010000010000000100010011 F"
b10 F
b10 ."
b10 H"
b10 {"
b10100 @
b10100 6"
b10100 J"
b10 A
b10 7"
b10 I"
b10 l
b10 {
b10 D"
0S
0P
1D
b10100 ]
b10100 $"
b10100 E"
b10100 g"
b10010 G
b10010 !"
b10010 ,"
b1000 L
b1000 #"
b1000 G"
b100110010000000100011 Y
b100110010000000100011 2"
b0 a
b0 1"
b0 5"
b0 T"
1R
xO
0C
b1010 0
b1010 '"
b1010 4"
b0 j
b0 ("
b0 0"
b0 S"
b0 ^"
b0 c"
1>
b100 J
b100 3"
b100 %#
b1 X
b1 8"
b1 W"
b1 q"
1B
b1010 i
b1010 V"
b1010 Y"
1'
#50000
b1010 &
b1010 =
b1010 r"
0'
#55000
b10100 7
b10100 -"
b10100 e"
b10100 f"
b100 k
b100 y
b100 +"
b11000 K
b11000 "#
b11000 &#
b100 p
b10 _
b10 :"
b10 d"
b10 }
b11111111111111111111111111111100 q
b100 w
b100 e
b100 u
b100 h"
1E
0T
1Q
1W
b11000 6
b11000 m"
b11000 $#
b0 i"
0k"
b10 ""
b1 )
b1 <"
b100 -
b100 >"
b100 o"
b100 }"
b110010000100000011 \
b110010000100000011 N"
b110010000100000011 ~"
b0 X
b0 8"
b0 W"
b0 q"
xN
0B
b0 i
b0 V"
b0 Y"
b1010000010000000100010011 Y
b1010000010000000100010011 2"
b10 a
b10 1"
b10 5"
b10 T"
0R
0O
1C
b0 0
b0 '"
b0 4"
b10100 j
b10100 ("
b10100 0"
b10100 S"
b10100 ^"
b10100 c"
0>
b10010 J
b10010 3"
b10010 %#
b1000110010001000100011 Z
b1000110010001000100011 z
b1000110010001000100011 /"
b1000110010001000100011 F"
b100 F
b100 ."
b100 H"
b100 {"
b10 @
b10 6"
b10 J"
b110 A
b110 7"
b110 I"
b0 l
b0 {
b0 D"
1S
xP
0D
b100 ]
b100 $"
b100 E"
b100 g"
b1110 G
b1110 !"
b1110 ,"
b1100 L
b1100 #"
b1100 G"
b10000110010000010000011 [
b10000110010000010000011 %"
b10000110010000010000011 B"
b10000110010000010000011 O"
b10000110010000010000011 Q"
b10000 M
b10000 A"
b10000 P"
b10100 H
b10100 M"
b10100 l"
b10100 !#
b10100 ##
1'
#60000
0'
#65000
b11100 K
b11100 "#
b11100 &#
b11100 6
b11100 m"
b11100 $#
b0 ^
b0 C"
b0 R"
b0 7
b0 -"
b0 e"
b0 f"
b0 _
b0 :"
b0 d"
b10100 *
b10100 ["
b10100 ]"
b10100 b"
b10100 p"
b1000001000000110110011 \
b1000001000000110110011 N"
b1000001000000110110011 ~"
b10 )
b10 <"
b0 -
b0 >"
b0 o"
b0 }"
b10 i"
b11000 H
b11000 M"
b11000 l"
b11000 !#
b11000 ##
b110010000100000011 [
b110010000100000011 %"
b110010000100000011 B"
b110010000100000011 O"
b110010000100000011 Q"
b10100 M
b10100 A"
b10100 P"
b10000110010000010000011 Z
b10000110010000010000011 z
b10000110010000010000011 /"
b10000110010000010000011 F"
b1 F
b1 ."
b1 H"
b1 {"
b100 @
b100 6"
b100 J"
0S
1V
1P
1D
b10010 G
b10010 !"
b10010 ,"
b10000 L
b10000 #"
b10000 G"
b1000110010001000100011 Y
b1000110010001000100011 2"
b100 a
b100 1"
b100 5"
b100 T"
1R
xO
0C
b10100 0
b10100 '"
b10100 4"
b100 j
b100 ("
b100 0"
b100 S"
b100 ^"
b100 c"
b1110 J
b1110 3"
b1110 %#
b10 X
b10 8"
b10 W"
b10 q"
0N
1B
b10100 i
b10100 V"
b10100 Y"
1'
#70000
b10100 %
b10100 <
b10100 s"
0'
#75000
1?
b0 k
b0 y
b0 +"
b100000 K
b100000 "#
b100000 &#
b0 p
b10100 5
b10100 )"
b10100 U"
1,
1+
b0 q
b0 w
b0 e
b0 u
b0 h"
b10 m
b10 &"
b10 ;"
0h
0Q
0W
b100000 6
b100000 m"
b100000 $#
b10100 2
b10100 ?"
b10100 y"
b1010 4
b1010 @"
b1010 x"
b0 ""
b11 )
b11 <"
b10 -
b10 >"
b10 o"
b10 }"
b1 .
b1 ="
b1 n"
b1 |"
b1000000001000001000000110110011 \
b1000000001000001000000110110011 N"
b1000000001000001000000110110011 ~"
b100 X
b100 8"
b100 W"
b100 q"
xN
0B
b100 i
b100 V"
b100 Y"
b10000110010000010000011 Y
b10000110010000010000011 2"
b1 a
b1 1"
b1 5"
b1 T"
0R
1U
1O
1C
b0 0
b0 '"
b0 4"
b10010 J
b10010 3"
b10010 %#
b110010000100000011 Z
b110010000100000011 z
b110010000100000011 /"
b110010000100000011 F"
b10 F
b10 ."
b10 H"
b10 {"
b0 @
b0 6"
b0 J"
b0 ]
b0 $"
b0 E"
b0 g"
b10100 G
b10100 !"
b10100 ,"
b10100 L
b10100 #"
b10100 G"
b1000001000000110110011 [
b1000001000000110110011 %"
b1000001000000110110011 B"
b1000001000000110110011 O"
b1000001000000110110011 Q"
b11000 M
b11000 A"
b11000 P"
b11100 H
b11100 M"
b11100 l"
b11100 !#
b11100 ##
1'
#80000
0'
#85000
0,
0+
b1010 5
b1010 )"
b1010 U"
1k"
0g
0V
0P
0D
b11000 G
b11000 !"
b11000 ,"
b11000 L
b11000 #"
b11000 G"
b110010000100000011 Y
b110010000100000011 2"
b10 a
b10 1"
b10 5"
b10 T"
b0 j
b0 ("
b0 0"
b0 S"
b0 ^"
b0 c"
1>
b10100 J
b10100 3"
b10100 %#
b1 X
b1 8"
b1 W"
b1 q"
1N
1B
b10100 /
b10100 X"
b10100 Z"
1'
#90000
b10100 &
b10100 =
b10100 r"
b10100 4
b10100 @"
b10100 x"
0'
#95000
0?
b0 o
b1010 e
b1010 u
b1010 h"
b11110 k
b11110 y
b11110 +"
b100100 K
b100100 "#
b100100 &#
b11110 p
b1010 *
b1010 ["
b1010 ]"
b1010 b"
b1010 p"
b1 _
b1 :"
b1 d"
b0 }
b1010 7
b1010 -"
b1010 e"
b1010 f"
b0 s
b0 r
b101000000000000 t
b1010 q
b11110 w
b10100 f
b10100 x
b10100 `"
b100100 6
b100100 m"
b100100 $#
b1000001111000110110011 \
b1000001111000110110011 N"
b1000001111000110110011 ~"
b10 X
b10 8"
b10 W"
b10 q"
b0 i
b0 V"
b0 Y"
b1010 /
b1010 X"
b1010 Z"
0U
0O
0C
b11000 J
b11000 3"
b11000 %#
b1000001000000110110011 Z
b1000001000000110110011 z
b1000001000000110110011 /"
b1000001000000110110011 F"
b11 F
b11 ."
b11 H"
b11 {"
b10 @
b10 6"
b10 J"
b1 A
b1 7"
b1 I"
b10 l
b10 {
b10 D"
1D
b10100 1
b10100 L"
b10100 a"
b10100 3
b10100 K"
b10100 \"
b1000000001000001000000110110011 [
b1000000001000001000000110110011 %"
b1000000001000001000000110110011 B"
b1000000001000001000000110110011 O"
b1000000001000001000000110110011 Q"
b11100 M
b11100 A"
b11100 P"
b100000 H
b100000 M"
b100000 l"
b100000 !#
b100000 ##
1'
#100000
b1010 %
b1010 <
b1010 s"
b1010 2
b1010 ?"
b1010 y"
0'
#105000
b1010 k
b1010 y
b1010 +"
b101000 K
b101000 "#
b101000 &#
b110 n
b110 v
b110 |
b101000 6
b101000 m"
b101000 $#
b100000 ~
b0 *
b0 ["
b0 ]"
b0 b"
b0 p"
b0 _
b0 :"
b0 d"
b1000001110000110110011 \
b1000001110000110110011 N"
b1000001110000110110011 ~"
b0 i"
0k"
b100100 H
b100100 M"
b100100 l"
b100100 !#
b100100 ##
b1000001111000110110011 [
b1000001111000110110011 %"
b1000001111000110110011 B"
b1000001111000110110011 O"
b1000001111000110110011 Q"
b100000 M
b100000 A"
b100000 P"
b1000000001000001000000110110011 Z
b1000000001000001000000110110011 z
b1000000001000001000000110110011 /"
b1000000001000001000000110110011 F"
b1010 1
b1010 L"
b1010 a"
b11100 G
b11100 !"
b11100 ,"
b11100 L
b11100 #"
b11100 G"
b1000001000000110110011 Y
b1000001000000110110011 2"
b11 a
b11 1"
b11 5"
b11 T"
1C
b1010 0
b1010 '"
b1010 4"
b11110 j
b11110 ("
b11110 0"
b11110 S"
b11110 ^"
b11110 c"
0>
0N
0B
1'
#110000
0'
#115000
1?
b0 k
b0 y
b0 +"
b0 n
b0 v
b0 |
b101100 K
b101100 "#
b101100 &#
b11110 *
b11110 ["
b11110 ]"
b11110 b"
b11110 p"
b111 }
b0 ~
b101100 6
b101100 m"
b101100 $#
b1000100000001000010011 \
b1000100000001000010011 N"
b1000100000001000010011 ~"
b11 X
b11 8"
b11 W"
b11 q"
1B
b11110 i
b11110 V"
b11110 Y"
b1000000001000001000000110110011 Y
b1000000001000001000000110110011 2"
b1010 j
b1010 ("
b1010 0"
b1010 S"
b1010 ^"
b1010 c"
b11100 J
b11100 3"
b11100 %#
b1000001111000110110011 Z
b1000001111000110110011 z
b1000001111000110110011 /"
b1000001111000110110011 F"
b100000 G
b100000 !"
b100000 ,"
b100000 L
b100000 #"
b100000 G"
b1000001110000110110011 [
b1000001110000110110011 %"
b1000001110000110110011 B"
b1000001110000110110011 O"
b1000001110000110110011 Q"
b100100 M
b100100 A"
b100100 P"
b101000 H
b101000 M"
b101000 l"
b101000 !#
b101000 ##
1'
#120000
b11110 $
b11110 ;
b11110 t"
0'
